643422 720323 504
686266 777591 504
666543 441884 509
429618 75509 449
728665 126077 509
889327 923160 476
60212 247679 443
614668 425041 470
12344 294149 443
543233 64959 470
686178 822187 504
164535 508703 449
326152 171519 443
184103 16879 383
638490 818124 504
124196 229242 386
903452 383002 525
927710 732057 525
356725 147830 443
276665 921642 525
37559 94024 351
567180 482018 470
315221 372221 441
956851 901447 507
822497 255551 509
644364 815314 504
747519 904038 525
316596 878837 525
470344 462952 413
998401 350743 525
75350 861902 525
627281 440797 509
759442 946920 525
145513 874351 525
312787 495410 449
544065 530908 408
208113 238084 443
377726 558006 470
752784 778284 468
57267 674752 509
337376 80873 443
224417 738122 509
229451 130307 386
201756 922593 525
370014 744869 509
803832 688676 504
8443 706679 509
302261 323083 384
897595 167544 525
437042 141835 449
847563 67398 525
459331 335872 449
319659 784711 509
981922 7092 525
357573 335187 441
659633 202643 509
898926 141690 525
392829 803117 509
684294 215501 509
296713 293216 358
599061 294666 470
388374 411055 449
802274 366566 509
100301 608103 470
243205 879924 525
959999 201198 525
867339 842724 419
745894 774027 468
271713 526275 470
824891 747394 468
828411 155735 509
133795 379896 443
372554 724975 509
520753 329870 470
705039 404841 509
836282 480627 509
997436 599861 525
466010 75804 449
320930 39900 443
817414 48141 509
926771 102100 525
772291 17589 509
91872 467215 449
397060 108476 443
795877 436343 509
35245 333853 443
449615 175347 449
55348 700100 509
853055 298327 525
816161 926727 525
168370 848298 525
259310 33615 443
989836 658814 525
944374 534846 525
640721 777947 504
248952 715357 509
600893 784430 509
612536 94086 470
720631 162 509
730698 226204 509
887089 633233 525
50215 435464 449
203213 128991 383
259130 818181 509
715233 639228 504
862924 134886 525
799739 531353 509
717373 742093 424
677584 849048 525
626692 194800 509
349498 970737 525
132492 739200 509
946007 682871 525
950232 931638 507
618782 484097 470
22197 510543 449
55022 314447 443
862459 329491 525
657402 142741 509
416999 435691 418
138247 129318 344
139062 560145 470
89105 149625 375
624221 729771 509
267158 360250 441
131866 116423 344
893529 507930 525
457739 310076 449
253331 317593 407
903482 997826 507
562168 547455 421
484301 42835 449
95818 473497 449
661518 914265 525
54685 896743 525
922684 503721 525
238148 350814 441
497021 274433 449
532178 839298 525
721624 976967 525
650154 827920 504
615388 166497 470
464977 504185 426
622466 569582 447
305259 815461 509
898990 958719 507
318408 917765 525
742740 568532 509
497043 149239 449
750826 314532 509
177817 865931 525
553419 416055 470
548362 545195 452
147223 924544 525
23177 489865 449
670315 150822 509
542092 646989 509
306826 190006 443
660149 459361 509
506577 707143 509
176584 170909 347
674003 761940 504
643455 880467 525
833817 300192 509
813696 238789 509
827422 789590 468
161443 88266 383
885799 838720 432
849781 308728 525
455470 95312 449
781634 302096 509
942741 885452 507
593778 808796 509
592255 531979 452
475110 101442 449
341096 493461 449
175523 397824 443
53392 892739 525
941244 78199 525
622183 264106 470
581663 747626 509
812236 276084 509
541159 178656 470
778640 794753 437
238931 964874 525
880531 457318 525
435507 529515 470
802145 105637 509
310686 140979 443
634216 996714 525
253345 215224 443
210086 507105 449
593589 749463 509
812620 161017 509
445535 526616 470
991940 814080 525
895771 342593 525
631915 963633 525
540771 814973 509
613341 736462 509