292258 968672 525
477670 342490 449
910542 408650 525
185512 789421 509
809108 757378 468
990937 160041 525
552211 723791 509
552195 323098 470
153176 729971 509
462522 266563 449
712011 466865 509
806029 895081 525
775242 231065 509
828075 535874 509
472481 751849 509
720521 347365 509
204059 278944 443
687593 198192 509
501817 114601 449
386183 873105 525
547350 310925 470
548920 377120 470
214422 613765 470
343736 101115 443
367678 367597 255
348667 320462 441
729747 593893 509
824957 154696 509
204774 504990 449
256839 167237 443
514601 191459 470
470402 977359 525
689755 232864 509
347464 157996 443
545305 191572 470
16701 733646 509
624971 92655 470
220624 565620 470
666735 353597 509
235399 564360 470
399026 548617 470
142510 584065 470
738760 128774 509
147968 481671 449
648908 457738 509
649196 404806 509
896369 677713 525
910577 119599 525
791798 100330 509
806105 258041 509
505892 851307 525
943961 822806 525
388426 645067 509
998663 164585 525
243149 55161 443
603777 234062 470
818126 642175 504
285153 260491 407
742162 71091 509
528828 433120 470
352130 391070 436
68783 692229 509
326032 762703 509
377237 493564 449
751605 117830 509
969136 183343 525
520353 771701 509
416768 427302 418
106091 908778 525
478144 415431 444
649493 863444 525
19824 596125 470
856616 981823 507
52915 304976 443
252300 112983 443
18257 95947 351
788175 604429 509
881336 601243 525
94808 114207 354
746240 258574 509
956120 360617 525
132318 229581 386
656882 476473 509
899455 63290 525
478720 277178 449
140622 377599 443
487929 642417 509
138446 160445 383
979624 858749 507
971731 191360 525
287306 231924 407
350557 989987 525
591230 589686 359
703892 231893 509
4671 200242 383
560858 964337 525
193918 960790 525
437263 693175 509
756464 365005 509
642182 336719 509
228522 749389 509
906010 297008 525
971656 716450 525
89404 44456 351
750019 951280 525
697408 575339 509
565326 551530 421
141216 562169 470
308266 670761 509
871002 359312 525
323649 312937 371
787931 431861 509
639240 31772 509
396776 225195 443
76118 909909 525
173503 38958 383
335965 304639 384
535294 593717 452
638173 307621 509
773105 624697 509
714241 902396 525
453926 984717 525
546886 279567 470
464532 595141 470
468658 855151 525
682292 849739 525
795804 306511 509
338282 470224 449
209623 949248 525
859157 735057 525
774014 285740 509
104583 546864 470
140582 624183 470
446008 154081 449
778778 292959 509
195355 219113 386
203830 7224 383
286790 649281 509
758626 264920 509
120072 265527 443
629470 741488 504
48000 316568 443
786791 425274 509
374522 386281 423
121339 510618 449
796357 747884 468
808952 409557 509
33741 415145 449
569225 949533 525
756696 479748 509
