13574 20718 279
23295 9927 279
14260 6748 276
28470 18093 308
20562 16474 279
2355 700 183
23843 10511 282
22346 16913 279
12452 28314 308
26725 18761 308
21046 22560 269
17697 901 279
7299 24267 282
7718 24770 282
27521 29389 272
22435 4801 279
20127 14542 279
9553 27387 308
24381 8047 282
19319 31301 308
12340 12289 188
17917 28282 308
7610 9103 252
32337 31193 285
20822 27590 308
3762 19471 279
15905 28205 308
30963 10837 308
9084 11644 268
12011 19381 279
31907 16556 308
3072 22177 279
9028 17860 279
13747 2603 276
13660 12738 276
2976 16202 276
30156 10223 308
18347 14461 279
29041 14045 308
13820 13211 276
24167 16124 282
536 32280 308
32750 29005 285
26329 13626 282
19183 4513 279
27845 2235 308
625 20169 279
23618 145 282
1935 17569 276
13525 5656 276
12677 5912 268
14368 18105 279
19973 12450 279
14938 31429 308
6755 24040 282
29217 24567 308
32179 286 308
303 16889 276
30139 21857 308
18384 13234 279
7028 27475 308
20644 19044 274
5219 29335 308
24703 15637 282
518 24207 282
22630 6024 279
5507 23114 279
19102 21649 274
19177 1822 279
13549 16419 271
21132 29798 308
21905 12290 279
5354 7960 262
11379 13893 276
20285 12682 279
30072 9629 308
18492 24591 282
14492 6743 276
24605 7328 282
4167 12259 268
23251 21525 269
11820 22826 279
31064 4108 308
28544 15639 308
8458 8847 216
30646 23310 308
18898 6 279
28314 17978 308
12995 8834 268
26991 32568 285
3981 31457 308
9740 27895 308
32088 10063 308
24724 8671 282
17786 21557 274
30935 28174 272
16092 24403 282
18182 26693 308
16837 28543 308
29127 16972 308
30308 9982 308
28251 10418 308
30408 20624 308
8467 29267 308
19322 16262 279
19488 19426 199
5400 27153 308
18114 27528 308
22749 7367 279
19126 32412 308
10825 10619 193
13864 1612 276
26607 46 282
30710 17808 308
28449 25059 308
3294 19124 279
10011 24686 282
2355 700 183
23843 10511 282
22346 16913 279
12452 28314 308
26725 18761 308
21046 22560 269
17697 901 279
7299 24267 282
7718 24770 282
27521 29389 272
22435 4801 279
20127 14542 279
9553 27387 308
24381 8047 282
19319 31301 308
12340 12289 188
17917 28282 308
7610 9103 252
32337 31193 285
20822 27590 308
3762 19471 279
15905 28205 308
30963 10837 308
9084 11644 268
12011 19381 279
31907 16556 308
3072 22177 279
9028 17860 279
13747 2603 276
13660 12738 276
2976 16202 276
30156 10223 308
18347 14461 279
29041 14045 308
13820 13211 276
24167 16124 282
536 32280 308
32750 29005 285
26329 13626 282
19183 4513 279
27845 2235 308
625 20169 279
23618 145 282
1935 17569 276
13525 5656 276
12677 5912 268
14368 18105 279
19973 12450 279
14938 31429 308
6755 24040 282
29217 24567 308
32179 286 308
303 16889 276
30139 21857 308
18384 13234 279
7028 27475 308
20644 19044 274
5219 29335 308
24703 15637 282
518 24207 282
22630 6024 279
5507 23114 279
19102 21649 274
19177 1822 279
13549 16419 271
21132 29798 308
21905 12290 279
5354 7960 262
11379 13893 276
20285 12682 279
30072 9629 308
18492 24591 282
14492 6743 276
24605 7328 282
4167 12259 268
23251 21525 269
11820 22826 279
31064 4108 308
28544 15639 308
8458 8847 216
30646 23310 308
18898 6 279
28314 17978 308