1 1 1
1 2 2
4 5 6
1 10 20
1 20 21
2 50 112
50 1000 179
1000 2000 182
1 5000 238
5000 10000 262
9000 9999 260
1337 42000 324
200000 300000 443
500000 550000 470
600000 700000 509
600000 726009 509
100000 189229 383
9811 221503 386
78869 796685 509
40150 962739 525
95034 701615 509
231268 542265 470
261001 372411 441
156855 814907 509
373514 803032 509
212408 500931 449
208216 649728 509
447029 977966 525
900000 1000000 507
999999 1000000 259
1000000 1000000 153
1 1000000 525
1234 4567 238
999 1000 112
777 999 179
67564 99999 351
59899 75687 335
10 1 20
50 99 119
300000 400000 441
500000 600000 470
550000 551000 346
600000 780000 509
700000 780000 504
600000 658999 509
726009 834222 468
100000 600000 470
189229 700000 509
5061 89674 351
4054 127453 354
9884 99987 351
8862 555555 470
387 725364 509
1640 9099 262
4738 5000 210
4114 4798 215
2427 5912 238
4867 5443 210
3433 5542 238
415 3036 217
5871 7623 262
73 427 144
3666 7685 262
5294 7690 262
2901 4297 238
1620 5522 238
4154 9165 262
698 4963 238
2126 5760 238
4961 5986 236
2834 3662 217
2183 2549 209
6042 7482 262
5100 8978 262
2428 7441 262
1780 1907 175
812 3745 238
7576 295517 443
25672 77763 351
20931 79206 351
67977 76639 325
18503 906672 525
68905 922732 525
83141 907770 525
47724 579222 470
65297 444528 449
8471 80830 351
48979 491339 449
17387 760983 509
30151 714022 509
6040 249495 443
17295 673795 509
1381 111352 354
62910 352821 443
87570 911965 525
46217 549437 470
85314 760983 509
17911 34918 311
39408 685292 509
39857 496681 449
