629144 17290 509
345695 306811 384
44121 236513 443
786704 193793 509
317077 440419 449
164470 171487 352
356538 496052 449
216553 896712 525
936402 246118 525
186885 863365 525
358775 641360 509
794638 116920 509
761035 778632 468
877623 593978 525
233449 8262 443
716834 735375 411
914570 876868 476
815383 14447 509
13939 305541 443
952871 546513 525
275045 68381 443
665405 1285 509
736248 332635 509
911761 626833 525
773325 749255 468
577840 311879 470
314563 341438 384
644397 262639 509
807747 228805 509
297116 51074 443
988164 46115 525
993482 503321 525
747702 767980 468
517466 140266 470
437335 534827 470
350935 656598 509
748798 990388 525
269756 230390 443
915942 587288 525
932942 292117 525
352266 294855 441
374792 750235 509
998332 152040 525
732799 569823 509
591258 148403 470
248244 31473 443
788198 987373 525
561705 959509 525
576704 388578 470
592346 701819 509
687087 719779 504
837667 667934 504
785376 914018 525
759542 787724 468
70188 823861 509
32669 339938 443
522817 392167 470
823218 218007 509
467063 277588 449
938257 849947 476
283793 863058 525
640683 669833 442
94983 896818 525
159705 250276 443
982921 368048 525
443553 948445 525
842520 602983 525
498911 192640 449
278137 982425 525
740703 342054 509
51045 127843 354
136186 389277 443
459650 880799 525
568928 643293 509
691806 909232 525
771084 930081 525
627040 314164 509
376485 778645 509
786217 181675 509
132435 522175 470
127170 627556 509
74657 237243 443
167042 515803 470
517740 968299 525
475546 697200 509
42507 740461 509
928109 310468 525
272072 450444 449
233800 416065 449
119980 843688 525
160217 991454 525
366656 435124 449
565938 106720 470
874492 411703 525
820900 920710 525
487268 266706 449
446030 990403 525
676181 159050 509
835689 269988 509
292626 765179 509
739963 91216 509
366970 696823 509
778544 362811 509
752909 394806 509
633958 204340 509
558593 777264 509
729095 238666 509
728580 820025 468
132466 807185 509
844746 677586 525
154374 443335 449
199659 915036 525
598126 42375 470
462520 914418 525
912661 299267 525
805602 543466 509
556432 151483 470
188267 730289 509
727127 159895 509
605941 674516 509
237761 988411 525
503062 43548 449
726923 401814 509
221856 652009 509
579431 491333 470
312906 803133 509
903361 158707 525
768810 682732 504
660426 242097 509
758847 939590 525
578858 50951 470
240424 860484 525
791470 491997 509
902145 353755 525
236287 414789 449
253743 292235 407
733077 282824 509
319670 634493 509
306407 784979 509
316040 142809 443
764257 542097 509
894664 446916 525
761004 634832 504
23331 664484 509
574524 281379 470
338036 782477 509
609424 627542 509
850740 527927 525
201860 276595 443
225341 512342 470
646140 882711 525
444880 20862 449
489298 859245 525
584608 935460 525
47014 11979 324
578410 930886 525
782779 697428 504
320155 262723 407
661903 927665 525
176911 178831 347
842930 695574 525
7569 228632 386
101285 678324 509
78249 519083 470
193431 391803 443
844993 271871 525
964532 815127 525
434576 873259 525
378627 481802 449
795880 976192 525
807511 42968 509
917128 113660 525
853025 348142 525
208371 713029 509
697159 160211 509
133974 362891 443
475361 723927 509
446453 677232 509
450687 540973 470
920867 126061 525
829859 869690 525
318053 757341 509
907075 663858 525
415374 821980 509
847366 892442 445
335224 931791 525
828507 441043 509
74407 529737 470
449010 85774 449
91580 132475 354
279406 351630 441
45347 17082 324
185030 419925 449
292136 767049 509
580734 633155 509
550894 367017 470
91444 560719 470
220706 341404 443
187189 35176 383
197802 768993 509
